<?xml version="1.0" encoding="utf-8"?>
<!-- Generator: Adobe Illustrator 22.1.0, SVG Export Plug-In . SVG Version: 6.00 Build 0)  -->
<svg version="1.1" id="Слой_1" xmlns="http://www.w3.org/2000/svg" xmlns:xlink="http://www.w3.org/1999/xlink" x="0px" y="0px"
	 viewBox="0 0 48.8 27.7" style="enable-background:new 0 0 48.8 27.7;" xml:space="preserve">
<path d="M47.8,5.6c0.6-0.6,1-1.4,1-2.3c0-0.8-0.3-1.7-1-2.3c-1.3-1.3-3.4-1.3-4.6,0L24.4,19.8L5.6,1C4.3-0.3,2.2-0.3,1,1
	c-1.3,1.3-1.3,3.4,0,4.6l21.1,21.1c0.6,0.6,1.4,1,2.3,1s1.7-0.3,2.3-1L47.8,5.6z"/>
</svg>
